…
### Step 2

Pipe the trendy object that you created in Step 1 (i.e.,
`google_trends`) into the `get_interest()` accessor function to retrieve
data related to search interest over time and name this tibble
`search_interest`:

``` r
google_trends %>% 
   get_interest() -> 
   search_interest
```

    ## # A tibble: 193 x 7
    ##    date                 hits keyword  geo   time              gprop category    
    ##    <dttm>              <int> <chr>    <chr> <chr>             <chr> <chr>       
    ##  1 2017-06-25 00:00:00    18 /m/0g8rj US-VA 2017-06-22 2021-… web   All categor…
    ##  2 2017-07-02 00:00:00    19 /m/0g8rj US-VA 2017-06-22 2021-… web   All categor…
    ##  3 2017-07-09 00:00:00    22 /m/0g8rj US-VA 2017-06-22 2021-… web   All categor…
    ##  4 2017-07-16 00:00:00    24 /m/0g8rj US-VA 2017-06-22 2021-… web   All categor…
    ##  5 2017-07-23 00:00:00    18 /m/0g8rj US-VA 2017-06-22 2021-… web   All categor…
    ##  6 2017-07-30 00:00:00    25 /m/0g8rj US-VA 2017-06-22 2021-… web   All categor…
    ##  7 2017-08-06 00:00:00    29 /m/0g8rj US-VA 2017-06-22 2021-… web   All categor…
    ##  8 2017-08-13 00:00:00    35 /m/0g8rj US-VA 2017-06-22 2021-… web   All categor…
    ##  9 2017-08-20 00:00:00    51 /m/0g8rj US-VA 2017-06-22 2021-… web   All categor…
    ## 10 2017-08-27 00:00:00    52 /m/0g8rj US-VA 2017-06-22 2021-… web   All categor…
    ## # … with 183 more rows
…
``` r
search_interest %>% 
   mutate(week = as_date(date)) %>% 
   select(week, interest_normalized = hits) ->
   search_interest
```

After you run the code above, typing `search_interest` into the console
and hitting enter should print the following:

    ## # A tibble: 193 x 2
    ##    week       interest_normalized
    ##    <date>                   <int>
    ##  1 2017-06-25                  18
    ##  2 2017-07-02                  19
    ##  3 2017-07-09                  22
    ##  4 2017-07-16                  24
    ##  5 2017-07-23                  18
    ##  6 2017-07-30                  25
    ##  7 2017-08-06                  29
    ##  8 2017-08-13                  35
    ##  9 2017-08-20                  51
    ## 10 2017-08-27                  52
    ## # … with 183 more rows
…
``` r
transaction %>% 
   left_join(location %>% select(location_id, location_name)) %>%
   filter(location_name == "The Corner (C'ville)") ->
   transaction_corner
```

After you run the code above, typing `transaction_corner` into the
console and hitting enter should print the following:

    ## # A tibble: 110,232 x 15
    ##    ordered_at          price_charged tax_collected tip_received fee_paid
    ##    <dttm>                      <dbl>         <dbl>        <dbl>    <dbl>
    ##  1 2017-06-22 09:06:10             8          0.74            0     0.22
    ##  2 2017-06-22 09:06:48             8          0.74            0     0.22
    ##  3 2017-06-22 09:09:46             8          0.74            0     0.22
    ##  4 2017-06-22 09:14:09             8          0.74            0     0.22
    ##  5 2017-06-22 09:20:10            22          2.06            0     0.59
    ##  6 2017-06-22 09:21:53             9          0.84            0     0.24
    ##  7 2017-06-22 09:43:40             8          0.74            0     0.22
    ##  8 2017-06-22 09:50:06            11          1.03            0     0.3 
    ##  9 2017-06-22 09:51:20             8          0.74            0     0.22
    ## 10 2017-06-22 09:57:13             9          0.84            0     0.24
    ## # … with 110,222 more rows, and 10 more variables: discount_given <dbl>,
    ## #   discount_name <chr>, transaction_source <chr>, payment_method <chr>,
    ## #   card_brand <chr>, refund_reason <chr>, customer_id <chr>,
    ## #   location_id <chr>, transaction_id <chr>, location_name <chr>
…
Before you run the code above, go through it function-by-function to see
what is happening “under the hood.” Be sure to ask for clarification
if/when things do not make sense.

After you run the code above, typing `gross_sales_corner` into the
console and hitting enter should print the following:

    ## # A tibble: 182 x 2
    ##    week       gross_sales_normalized
    ##    <date>                      <dbl>
    ##  1 2017-06-18                   19.1
    ##  2 2017-06-25                   53.9
    ##  3 2017-07-02                   62.5
    ##  4 2017-07-09                   68.0
    ##  5 2017-07-16                   59.3
    ##  6 2017-07-23                   48.5
    ##  7 2017-07-30                   53.2
    ##  8 2017-08-06                   34.9
    ##  9 2017-08-13                   60.2
    ## 10 2017-08-20                   92.3
    ## # … with 172 more rows
### Step 6

Join the `search_interest` dataset with the `gross_sales_corner`
dataset:

``` r
search_interest %>%    
   left_join(gross_sales_corner) ->
   search_and_gross_sales
```

After you run the code above, typing `search_and_gross_sales` into the
console and hitting enter should print the following:

    ## # A tibble: 193 x 3
    ##    week       interest_normalized gross_sales_normalized
    ##    <date>                   <int>                  <dbl>
    ##  1 2017-06-25                  18                   53.9
    ##  2 2017-07-02                  19                   62.5
    ##  3 2017-07-09                  22                   68.0
    ##  4 2017-07-16                  24                   59.3
    ##  5 2017-07-23                  18                   48.5
    ##  6 2017-07-30                  25                   53.2
    ##  7 2017-08-06                  29                   34.9
    ##  8 2017-08-13                  35                   60.2
    ##  9 2017-08-20                  51                   92.3
    ## 10 2017-08-27                  52                   63.2
    ## # … with 183 more rows
…
