…
gtrends$week_of <- as.Date(gtrends$week_of) # Rather than datetime default
gtrends$relative_interest <- as.double(gtrends$relative_interest) # Not Int
gtrends[gtrends$search_term == gsub("q=", "", 
                                    URLdecode(topic_url)), 
        "search_term"] <- "TJL Topic"

gtrends
```

    ## # A tibble: 585 x 3
    ##    week_of    search_term       relative_interest
    ##    <date>     <chr>                         <dbl>
    ##  1 2016-10-09 the juice laundry                22
    ##  2 2016-10-16 the juice laundry                11
    ##  3 2016-10-23 the juice laundry                16
    ##  4 2016-10-30 the juice laundry                22
    ##  5 2016-11-06 the juice laundry                15
    ##  6 2016-11-13 the juice laundry                11
    ##  7 2016-11-20 the juice laundry                11
    ##  8 2016-11-27 the juice laundry                10
    ##  9 2016-12-04 the juice laundry                 0
    ## 10 2016-12-11 the juice laundry                10
    ## # … with 575 more rows

Read in the csv you downloaded from the UI. Swap my local path with your local path.

``` r
csv <- "/Users/malcolm_mashig/Downloads/multiTimeline-37.csv"
raw_google_trends <- read_csv(csv, skip = 2)

raw_google_trends
```

    ## # A tibble: 117 x 6
    ##    Week       `the juice laun… `"the juice lau… `juice laundry:…
    ##    <date>                <dbl>            <dbl>            <dbl>
    ##  1 2016-10-09               10                0               10
    ##  2 2016-10-16                0                0               31
    ##  3 2016-10-23                0                0               10
    ##  4 2016-10-30                0                0               39
    ##  5 2016-11-06                0                0                0
    ##  6 2016-11-13                0               20               10
    ##  7 2016-11-20                0                0                0
    ##  8 2016-11-27                0                0               28
    ##  9 2016-12-04                0                0              100
    ## 10 2016-12-11               19                9               38
    ## # … with 107 more rows, and 2 more variables: `"juice laundry": (United
    ## #   States)` <dbl>, `The Juice Laundry: (United States)` <dbl>
…
google_trends[google_trends$search_term == "the juice laundry: (United States)", "search_term"] <- "the juice laundry"

google_trends[google_trends$search_term == '"the juice laundry": (United States)', "search_term"] <- '"the juice laundry"'

google_trends[google_trends$search_term == 'juice laundry: (United States)', "search_term"] <- "juice laundry"

google_trends[google_trends$search_term == '"juice laundry": (United States)', "search_term"] <- '"juice laundry"'

google_trends[google_trends$search_term == 'The Juice Laundry: (United States)', "search_term"] <- "TJL Topic"

google_trends
```

    ## # A tibble: 585 x 3
    ##    week_of    search_term       relative_interest
    ##    <date>     <chr>                         <dbl>
    ##  1 2016-10-09 the juice laundry                10
    ##  2 2016-10-16 the juice laundry                 0
    ##  3 2016-10-23 the juice laundry                 0
    ##  4 2016-10-30 the juice laundry                 0
    ##  5 2016-11-06 the juice laundry                 0
    ##  6 2016-11-13 the juice laundry                 0
    ##  7 2016-11-20 the juice laundry                 0
    ##  8 2016-11-27 the juice laundry                 0
    ##  9 2016-12-04 the juice laundry                 0
    ## 10 2016-12-11 the juice laundry                19
    ## # … with 575 more rows
…
